{"playlists": {"items": [{"name": "Chill Hits", "collaborative": false, "external_urls": {"spotify": "http://open.spotify.com/user/spotify/playlist/7b9XqnXw5J47tmn0Y0IZeW"}, "uri": "spotify:user:spotify:playlist:7b9XqnXw5J47tmn0Y0IZeW", "public": null, "owner": {"href": "https://api.spotify.com/v1/users/spotify", "type": "user", "id": "spotify", "uri": "spotify:user:spotify", "external_urls": {"spotify": "http://open.spotify.com/user/spotify"}}, "tracks": {"total": 98, "href": "https://api.spotify.com/v1/users/spotify/playlists/7b9XqnXw5J47tmn0Y0IZeW/tracks"}, "href": "https://api.spotify.com/v1/users/spotify/playlists/7b9XqnXw5J47tmn0Y0IZeW", "snapshot_id": "HA2j7oDSR77osfCFiwTxEQeigciBOziIf5oQFnCupYa5rJWAXzjwTXkXf+ZWYUuk", "images": [{"url": "https://u.scdn.co/images/pl/default/2b02b0d1acef58f2e65b4155d7888835a379561a", "width": null, "height": null}], "type": "playlist", "id": "7b9XqnXw5J47tmn0Y0IZeW"}, {"name": "Pop Chillout", "collaborative": false, "external_urls": {"spotify": "http://open.spotify.com/user/spotify/playlist/5bMgwxIN2fNPSn3jjvRfE8"}, "uri": "spotify:user:spotify:playlist:5bMgwxIN2fNPSn3jjvRfE8", "public": null, "owner": {"href": "https://api.spotify.com/v1/users/spotify", "type": "user", "id": "spotify", "uri": "spotify:user:spotify", "external_urls": {"spotify": "http://open.spotify.com/user/spotify"}}, "tracks": {"total": 69, "href": "https://api.spotify.com/v1/users/spotify/playlists/5bMgwxIN2fNPSn3jjvRfE8/tracks"}, "href": "https://api.spotify.com/v1/users/spotify/playlists/5bMgwxIN2fNPSn3jjvRfE8", "snapshot_id": "Jh1nOPODSM5LiAUFxpWfUvXk6vNtLdl8EpcA7UdGFhTBY/AO8RwWgdNLncFIZAYn", "images": [{"url": "https://u.scdn.co/images/pl/default/fe8b5bf54bcedb8dd9935c5c327ac7b2f959c7e0", "width": null, "height": null}], "type": "playlist", "id": "5bMgwxIN2fNPSn3jjvRfE8"}, {"name": "Infinite Acoustic", "collaborative": false, "external_urls": {"spotify": "http://open.spotify.com/user/spotify/playlist/2jvJnYj1DfCT1tX0Otp8z7"}, "uri": "spotify:user:spotify:playlist:2jvJnYj1DfCT1tX0Otp8z7", "public": null, "owner": {"href": "https://api.spotify.com/v1/users/spotify", "type": "user", "id": "spotify", "uri": "spotify:user:spotify", "external_urls": {"spotify": "http://open.spotify.com/user/spotify"}}, "tracks": {"total": 90, "href": "https://api.spotify.com/v1/users/spotify/playlists/2jvJnYj1DfCT1tX0Otp8z7/tracks"}, "href": "https://api.spotify.com/v1/users/spotify/playlists/2jvJnYj1DfCT1tX0Otp8z7", "snapshot_id": "ADjxbKY0iHikuxsbY3NU6NraD0HfLZ4xI9ZE35O1RDUnf0MtAJnSviWIj/fWDXsY", "images": [{"url": "https://u.scdn.co/images/pl/default/3ee7e2d8d42d94df7861af6be5b3723d5bf7a35e", "width": null, "height": null}], "type": "playlist", "id": "2jvJnYj1DfCT1tX0Otp8z7"}, {"name": "Hanging Out and Relaxing", "collaborative": false, "external_urls": {"spotify": "http://open.spotify.com/user/spotify/playlist/0i0KOEPUK7pA1A5A29ulk4"}, "uri": "spotify:user:spotify:playlist:0i0KOEPUK7pA1A5A29ulk4", "public": null, "owner": {"href": "https://api.spotify.com/v1/users/spotify", "type": "user", "id": "spotify", "uri": "spotify:user:spotify", "external_urls": {"spotify": "http://open.spotify.com/user/spotify"}}, "tracks": {"total": 101, "href": "https://api.spotify.com/v1/users/spotify/playlists/0i0KOEPUK7pA1A5A29ulk4/tracks"}, "href": "https://api.spotify.com/v1/users/spotify/playlists/0i0KOEPUK7pA1A5A29ulk4", "snapshot_id": "skxFQ/7Ru3oOcHb/4ca6+UpWBB9YDDXf9RiiiWru2DlCKbHzMbXW44YDFWqG8Ge4", "images": [{"url": "https://u.scdn.co/images/pl/default/70f1192675ab4fe23015247384460401481482ee", "width": null, "height": null}], "type": "playlist", "id": "0i0KOEPUK7pA1A5A29ulk4"}, {"name": "Love, Sex & Water", "collaborative": false, "external_urls": {"spotify": "http://open.spotify.com/user/spotify/playlist/2nLBLpHHD8nvUcpr6vmRsR"}, "uri": "spotify:user:spotify:playlist:2nLBLpHHD8nvUcpr6vmRsR", "public": null, "owner": {"href": "https://api.spotify.com/v1/users/spotify", "type": "user", "id": "spotify", "uri": "spotify:user:spotify", "external_urls": {"spotify": "http://open.spotify.com/user/spotify"}}, "tracks": {"total": 75, "href": "https://api.spotify.com/v1/users/spotify/playlists/2nLBLpHHD8nvUcpr6vmRsR/tracks"}, "href": "https://api.spotify.com/v1/users/spotify/playlists/2nLBLpHHD8nvUcpr6vmRsR", "snapshot_id": "XIIDMETkppOUEKlX5rqrEZ5muTl/59wJkjp4WImMInCLap/H+pgtgahTs1duUiAl", "images": [{"url": "https://u.scdn.co/images/pl/default/fe1757069b62344cb1cc1f71e9e7157eca4bbf12", "width": null, "height": null}], "type": "playlist", "id": "2nLBLpHHD8nvUcpr6vmRsR"}, {"name": "Chill Vibes", "collaborative": false, "external_urls": {"spotify": "http://open.spotify.com/user/spotify/playlist/5HEiuySFNy9YKjZTvNn6ox"}, "uri": "spotify:user:spotify:playlist:5HEiuySFNy9YKjZTvNn6ox", "public": null, "owner": {"href": "https://api.spotify.com/v1/users/spotify", "type": "user", "id": "spotify", "uri": "spotify:user:spotify", "external_urls": {"spotify": "http://open.spotify.com/user/spotify"}}, "tracks": {"total": 129, "href": "https://api.spotify.com/v1/users/spotify/playlists/5HEiuySFNy9YKjZTvNn6ox/tracks"}, "href": "https://api.spotify.com/v1/users/spotify/playlists/5HEiuySFNy9YKjZTvNn6ox", "snapshot_id": "0lZRduF8X7SfZ4vs+8fqmW9IWQf1wd9EuHXFoKeVhTIeVWfA4JNs7jnTHer7e0Ho", "images": [{"url": "https://u.scdn.co/images/pl/default/465d20bd2d9f93078f60d72c0c254b770f182367", "width": null, "height": null}], "type": "playlist", "id": "5HEiuySFNy9YKjZTvNn6ox"}, {"name": "chill.out.brain", "collaborative": false, "external_urls": {"spotify": "http://open.spotify.com/user/spotify/playlist/66oi6TpdQHk3kS7ZHOx8gX"}, "uri": "spotify:user:spotify:playlist:66oi6TpdQHk3kS7ZHOx8gX", "public": null, "owner": {"href": "https://api.spotify.com/v1/users/spotify", "type": "user", "id": "spotify", "uri": "spotify:user:spotify", "external_urls": {"spotify": "http://open.spotify.com/user/spotify"}}, "tracks": {"total": 144, "href": "https://api.spotify.com/v1/users/spotify/playlists/66oi6TpdQHk3kS7ZHOx8gX/tracks"}, "href": "https://api.spotify.com/v1/users/spotify/playlists/66oi6TpdQHk3kS7ZHOx8gX", "snapshot_id": "eBwdXEyT0YQSQNhHi2zzy+rqKN1a5wY4rFoea+GqrZLZli1zF60MaH5lqlvlDyaW", "images": [{"url": "https://u.scdn.co/images/pl/default/f915b486a9b00b74b9a323202ea254063b90361b", "width": null, "height": null}], "type": "playlist", "id": "66oi6TpdQHk3kS7ZHOx8gX"}, {"name": "Chillin' on a Dirt Road", "collaborative": false, "external_urls": {"spotify": "http://open.spotify.com/user/spotify/playlist/1CdxnWpDA6i9SHucx2CC72"}, "uri": "spotify:user:spotify:playlist:1CdxnWpDA6i9SHucx2CC72", "public": null, "owner": {"href": "https://api.spotify.com/v1/users/spotify", "type": "user", "id": "spotify", "uri": "spotify:user:spotify", "external_urls": {"spotify": "http://open.spotify.com/user/spotify"}}, "tracks": {"total": 69, "href": "https://api.spotify.com/v1/users/spotify/playlists/1CdxnWpDA6i9SHucx2CC72/tracks"}, "href": "https://api.spotify.com/v1/users/spotify/playlists/1CdxnWpDA6i9SHucx2CC72", "snapshot_id": "F5tMoc5lkluab9Ekj42qPDMo6jXe2X4co8IJK3GK6kgK85T+IQ7TGmoR6XDIo/5A", "images": [{"url": "https://u.scdn.co/images/pl/default/3ad670c7a0a38e87637d2c5fc033a83c8ac149b0", "width": null, "height": null}], "type": "playlist", "id": "1CdxnWpDA6i9SHucx2CC72"}, {"name": "Fresh & Chill", "collaborative": false, "external_urls": {"spotify": "http://open.spotify.com/user/spotify/playlist/5lTUxvhPYBTRA1hiNPSKZE"}, "uri": "spotify:user:spotify:playlist:5lTUxvhPYBTRA1hiNPSKZE", "public": null, "owner": {"href": "https://api.spotify.com/v1/users/spotify", "type": "user", "id": "spotify", "uri": "spotify:user:spotify", "external_urls": {"spotify": "http://open.spotify.com/user/spotify"}}, "tracks": {"total": 58, "href": "https://api.spotify.com/v1/users/spotify/playlists/5lTUxvhPYBTRA1hiNPSKZE/tracks"}, "href": "https://api.spotify.com/v1/users/spotify/playlists/5lTUxvhPYBTRA1hiNPSKZE", "snapshot_id": "QtsHQamkZneM/kHob3coNlNjRWCe30ZxZvKZlcL4G0cYV8aUXbVP5PvO9A3J9Wot", "images": [{"url": "https://u.scdn.co/images/pl/default/4c63cb7e0cb9c79eed5e48ea9e2aa00252266bb8", "width": null, "height": null}], "type": "playlist", "id": "5lTUxvhPYBTRA1hiNPSKZE"}, {"name": "Mellow Bars", "collaborative": false, "external_urls": {"spotify": "http://open.spotify.com/user/spotify_netherlands/playlist/3r8ok7gRfb23XIQTZ3ttOK"}, "uri": "spotify:user:spotify_netherlands:playlist:3r8ok7gRfb23XIQTZ3ttOK", "public": null, "owner": {"href": "https://api.spotify.com/v1/users/spotify_netherlands", "type": "user", "id": "spotify_netherlands", "uri": "spotify:user:spotify_netherlands", "external_urls": {"spotify": "http://open.spotify.com/user/spotify_netherlands"}}, "tracks": {"total": 100, "href": "https://api.spotify.com/v1/users/spotify_netherlands/playlists/3r8ok7gRfb23XIQTZ3ttOK/tracks"}, "href": "https://api.spotify.com/v1/users/spotify_netherlands/playlists/3r8ok7gRfb23XIQTZ3ttOK", "snapshot_id": "UjxKBe7XUOTmeHQRJ//aoAvXSMEEhOiRMnjvEfTU5g1kFHPEGM1K/mFo2GvXQwPj", "images": [{"url": "https://u.scdn.co/images/pl/default/325eb659d5c24a2e592f23c2c4fb54dd461e74c7", "width": null, "height": null}], "type": "playlist", "id": "3r8ok7gRfb23XIQTZ3ttOK"}, {"name": "Mellow Beats", "collaborative": false, "external_urls": {"spotify": "http://open.spotify.com/user/spotify/playlist/3hpgM1U3bD6kvo7wJubQ8z"}, "uri": "spotify:user:spotify:playlist:3hpgM1U3bD6kvo7wJubQ8z", "public": null, "owner": {"href": "https://api.spotify.com/v1/users/spotify", "type": "user", "id": "spotify", "uri": "spotify:user:spotify", "external_urls": {"spotify": "http://open.spotify.com/user/spotify"}}, "tracks": {"total": 71, "href": "https://api.spotify.com/v1/users/spotify/playlists/3hpgM1U3bD6kvo7wJubQ8z/tracks"}, "href": "https://api.spotify.com/v1/users/spotify/playlists/3hpgM1U3bD6kvo7wJubQ8z", "snapshot_id": "w/1l7pyAj8o1HT+rZ2Aj6dtuwtf0UP7NLnulItRW9O4hXi4uRDK8hhTdsI0WSpgv", "images": [{"url": "https://u.scdn.co/images/pl/default/9d29649804a2ab012f206f92acb75bed345ceb55", "width": null, "height": null}], "type": "playlist", "id": "3hpgM1U3bD6kvo7wJubQ8z"}, {"name": "Classic Acoustic", "collaborative": false, "external_urls": {"spotify": "http://open.spotify.com/user/spotify/playlist/0H6qbVVo0qB3tw5DJZA4yL"}, "uri": "spotify:user:spotify:playlist:0H6qbVVo0qB3tw5DJZA4yL", "public": null, "owner": {"href": "https://api.spotify.com/v1/users/spotify", "type": "user", "id": "spotify", "uri": "spotify:user:spotify", "external_urls": {"spotify": "http://open.spotify.com/user/spotify"}}, "tracks": {"total": 124, "href": "https://api.spotify.com/v1/users/spotify/playlists/0H6qbVVo0qB3tw5DJZA4yL/tracks"}, "href": "https://api.spotify.com/v1/users/spotify/playlists/0H6qbVVo0qB3tw5DJZA4yL", "snapshot_id": "0QGbi3/IITB0uFRWZmrJBNByeJwBWve5HeH6rtzVqs1JukKGTslDcxPVwsJTKIua", "images": [{"url": "https://u.scdn.co/images/pl/default/ac006315d7f6c2a82bb86055ce7969ede36f894d", "width": null, "height": null}], "type": "playlist", "id": "0H6qbVVo0qB3tw5DJZA4yL"}, {"name": "Chill Tracks", "collaborative": false, "external_urls": {"spotify": "http://open.spotify.com/user/spotify/playlist/6VXeTHZPxzx3SGJvHJj80n"}, "uri": "spotify:user:spotify:playlist:6VXeTHZPxzx3SGJvHJj80n", "public": null, "owner": {"href": "https://api.spotify.com/v1/users/spotify", "type": "user", "id": "spotify", "uri": "spotify:user:spotify", "external_urls": {"spotify": "http://open.spotify.com/user/spotify"}}, "tracks": {"total": 302, "href": "https://api.spotify.com/v1/users/spotify/playlists/6VXeTHZPxzx3SGJvHJj80n/tracks"}, "href": "https://api.spotify.com/v1/users/spotify/playlists/6VXeTHZPxzx3SGJvHJj80n", "snapshot_id": "I4Dr08ZVh+hpEIGONUBaDbZmTaEmOfu7khDZT/qCa5xbF45D3alIWDz0WG0XXagP", "images": [{"url": "https://u.scdn.co/images/pl/default/06e0105eda8638999c7ab501339b8b841e44dd2e", "width": null, "height": null}], "type": "playlist", "id": "6VXeTHZPxzx3SGJvHJj80n"}, {"name": "Late Night Jazz", "collaborative": false, "external_urls": {"spotify": "http://open.spotify.com/user/spotify/playlist/2clF8IuETuB6DzmQn7I4RM"}, "uri": "spotify:user:spotify:playlist:2clF8IuETuB6DzmQn7I4RM", "public": null, "owner": {"href": "https://api.spotify.com/v1/users/spotify", "type": "user", "id": "spotify", "uri": "spotify:user:spotify", "external_urls": {"spotify": "http://open.spotify.com/user/spotify"}}, "tracks": {"total": 57, "href": "https://api.spotify.com/v1/users/spotify/playlists/2clF8IuETuB6DzmQn7I4RM/tracks"}, "href": "https://api.spotify.com/v1/users/spotify/playlists/2clF8IuETuB6DzmQn7I4RM", "snapshot_id": "oXCjaiJ/AhVoHnqxk5FGvl4jO0cWgvzsgqQt+nAjUvgrtSvoiKo5d376Y+pBdVph", "images": [{"url": "https://u.scdn.co/images/pl/default/5adc0ac3cfd246f4e321d40f8e096db365299299", "width": null, "height": null}], "type": "playlist", "id": "2clF8IuETuB6DzmQn7I4RM"}, {"name": "FrienDeSemana", "collaborative": false, "external_urls": {"spotify": "http://open.spotify.com/user/spotifyenespa%C3%B1ol/playlist/0CPEW18O09KrxXBKZG5YtS"}, "uri": "spotify:user:spotifyenespa%C3%B1ol:playlist:0CPEW18O09KrxXBKZG5YtS", "public": null, "owner": {"href": "https://api.spotify.com/v1/users/spotifyenespa%C3%B1ol", "type": "user", "id": "spotifyenespa\u00f1ol", "uri": "spotify:user:spotifyenespa%C3%B1ol", "external_urls": {"spotify": "http://open.spotify.com/user/spotifyenespa%C3%B1ol"}}, "tracks": {"total": 65, "href": "https://api.spotify.com/v1/users/spotifyenespa%C3%B1ol/playlists/0CPEW18O09KrxXBKZG5YtS/tracks"}, "href": "https://api.spotify.com/v1/users/spotifyenespa%C3%B1ol/playlists/0CPEW18O09KrxXBKZG5YtS", "snapshot_id": "KuvHYlZzUr1f+Rhclbq+D9mb2IjH40Zde/imPh/PU7UVVY8k/vYMbhSn9hRy+GEr", "images": [{"url": "https://i.scdn.co/image/26afdb816fd8f34ec08d2259e04b2b90ba504cc3", "width": 300, "height": 300}], "type": "playlist", "id": "0CPEW18O09KrxXBKZG5YtS"}, {"name": "Chilliger House", "collaborative": false, "external_urls": {"spotify": "http://open.spotify.com/user/spotify_germany/playlist/7gjTRaVp9UP2wpWewzvAYS"}, "uri": "spotify:user:spotify_germany:playlist:7gjTRaVp9UP2wpWewzvAYS", "public": null, "owner": {"href": "https://api.spotify.com/v1/users/spotify_germany", "type": "user", "id": "spotify_germany", "uri": "spotify:user:spotify_germany", "external_urls": {"spotify": "http://open.spotify.com/user/spotify_germany"}}, "tracks": {"total": 63, "href": "https://api.spotify.com/v1/users/spotify_germany/playlists/7gjTRaVp9UP2wpWewzvAYS/tracks"}, "href": "https://api.spotify.com/v1/users/spotify_germany/playlists/7gjTRaVp9UP2wpWewzvAYS", "snapshot_id": "o4gWPsjD4M+DaZIXeeij7ffKCHOrTLgvHYAnaVvImAmEUy6AxIOFEBZqD3Fgor8b", "images": [{"url": "https://u.scdn.co/images/pl/default/12eaaa4816ed6b15d59439c4315eb81b65ee4f22", "width": null, "height": null}], "type": "playlist", "id": "7gjTRaVp9UP2wpWewzvAYS"}, {"name": "Chillax Ka Muna!", "collaborative": false, "external_urls": {"spotify": "http://open.spotify.com/user/spotifyphilippines/playlist/0aHjwtpNmn9K35jNlJwuZo"}, "uri": "spotify:user:spotifyphilippines:playlist:0aHjwtpNmn9K35jNlJwuZo", "public": null, "owner": {"href": "https://api.spotify.com/v1/users/spotifyphilippines", "type": "user", "id": "spotifyphilippines", "uri": "spotify:user:spotifyphilippines", "external_urls": {"spotify": "http://open.spotify.com/user/spotifyphilippines"}}, "tracks": {"total": 51, "href": "https://api.spotify.com/v1/users/spotifyphilippines/playlists/0aHjwtpNmn9K35jNlJwuZo/tracks"}, "href": "https://api.spotify.com/v1/users/spotifyphilippines/playlists/0aHjwtpNmn9K35jNlJwuZo", "snapshot_id": "YvAPAKcOt8x6/7aNFicdaM5btnr2HryhbTnLQTZhkf1V7z3gYFirUCP3qRLe0w4y", "images": [{"url": "https://u.scdn.co/images/pl/default/73568ff9e0364642a132587b9d39b72c2239b602", "width": null, "height": null}], "type": "playlist", "id": "0aHjwtpNmn9K35jNlJwuZo"}, {"name": "Indie Chillout.", "collaborative": false, "external_urls": {"spotify": "http://open.spotify.com/user/spotify/playlist/6G2GPOJNY3ZmXHdbL2jAee"}, "uri": "spotify:user:spotify:playlist:6G2GPOJNY3ZmXHdbL2jAee", "public": null, "owner": {"href": "https://api.spotify.com/v1/users/spotify", "type": "user", "id": "spotify", "uri": "spotify:user:spotify", "external_urls": {"spotify": "http://open.spotify.com/user/spotify"}}, "tracks": {"total": 100, "href": "https://api.spotify.com/v1/users/spotify/playlists/6G2GPOJNY3ZmXHdbL2jAee/tracks"}, "href": "https://api.spotify.com/v1/users/spotify/playlists/6G2GPOJNY3ZmXHdbL2jAee", "snapshot_id": "vwKhaKTY6t3oBBMWkQO3Waih9tIr/lmpDSDqGc7nE6Cie/iD3CS64eqinEOkHwjG", "images": [{"url": "https://u.scdn.co/images/pl/default/ee46ef7b889b806f763c18578c3e91825ba2970c", "width": null, "height": null}], "type": "playlist", "id": "6G2GPOJNY3ZmXHdbL2jAee"}, {"name": "Electro Chill", "collaborative": false, "external_urls": {"spotify": "http://open.spotify.com/user/spotify_france/playlist/65vGP10RuC1rmSu3u66WqB"}, "uri": "spotify:user:spotify_france:playlist:65vGP10RuC1rmSu3u66WqB", "public": null, "owner": {"href": "https://api.spotify.com/v1/users/spotify_france", "type": "user", "id": "spotify_france", "uri": "spotify:user:spotify_france", "external_urls": {"spotify": "http://open.spotify.com/user/spotify_france"}}, "tracks": {"total": 55, "href": "https://api.spotify.com/v1/users/spotify_france/playlists/65vGP10RuC1rmSu3u66WqB/tracks"}, "href": "https://api.spotify.com/v1/users/spotify_france/playlists/65vGP10RuC1rmSu3u66WqB", "snapshot_id": "XrwtE5RuL5MZAqe2dmVkF990CZaq/RhxVG0t6fjBjBer1gGTkZKmc+HPS8+f3jy+", "images": [{"url": "https://u.scdn.co/images/pl/default/6624df9d4550a064c9470b59ef78f16d1bc29ac8", "width": null, "height": null}], "type": "playlist", "id": "65vGP10RuC1rmSu3u66WqB"}, {"name": "Lush Vibes", "collaborative": false, "external_urls": {"spotify": "http://open.spotify.com/user/spotify/playlist/1t1jtvKSLX3jHMtZqiwaMn"}, "uri": "spotify:user:spotify:playlist:1t1jtvKSLX3jHMtZqiwaMn", "public": null, "owner": {"href": "https://api.spotify.com/v1/users/spotify", "type": "user", "id": "spotify", "uri": "spotify:user:spotify", "external_urls": {"spotify": "http://open.spotify.com/user/spotify"}}, "tracks": {"total": 82, "href": "https://api.spotify.com/v1/users/spotify/playlists/1t1jtvKSLX3jHMtZqiwaMn/tracks"}, "href": "https://api.spotify.com/v1/users/spotify/playlists/1t1jtvKSLX3jHMtZqiwaMn", "snapshot_id": "bxBTY7VBjcjMNUmcpbt1VMXkqtpwM8ZegoSrcXe/oXCDDAzzGZn9oCTO6so36hwC", "images": [{"url": "https://u.scdn.co/images/pl/default/9f02e4bc90b2f1bd2b0cde991f0ba599cfe68566", "width": null, "height": null}], "type": "playlist", "id": "1t1jtvKSLX3jHMtZqiwaMn"}], "next": "https://api.spotify.com/v1/search?query=*Chill*&offset=20&limit=20&type=playlist", "href": "https://api.spotify.com/v1/search?query=*Chill*&offset=0&limit=20&type=playlist", "limit": 20, "offset": 0, "total": 149055, "previous": null}}